…
# Example
load packages
```julia-repl
julia> using GeoTiles;
julia> using DataFrames;
julia> using Extents;
```

Define a global 2-degree GeoTile grid
```julia-repl
julia> geotiles = GeoTiles.define(2.)
16200×3 DataFrame
   Row │ id                        extent                             geometry   ⋯
       │ String                    Extent…                            Polygon…   ⋯
───────┼──────────────────────────────────────────────────────────────────────────
     1 │ lat[-90-88]lon[-180-178]  Extent{(:X, :Y), Tuple{Tuple{Flo…  Polygon{fa ⋯
     2 │ lat[-90-88]lon[-178-176]  Extent{(:X, :Y), Tuple{Tuple{Flo…  Polygon{fa
     3 │ lat[-90-88]lon[-176-174]  Extent{(:X, :Y), Tuple{Tuple{Flo…  Polygon{fa
   ⋮   │            ⋮                              ⋮                             ⋱
 16198 │ lat[+88+90]lon[+174+176]  Extent{(:X, :Y), Tuple{Tuple{Flo…  Polygon{fa
 16199 │ lat[+88+90]lon[+176+178]  Extent{(:X, :Y), Tuple{Tuple{Flo…  Polygon{fa ⋯
 16200 │ lat[+88+90]lon[+178+180]  Extent{(:X, :Y), Tuple{Tuple{Flo…  Polygon{fa
                                                   1 column and 16194 rows omitted
```
…
